-------------------------------------------------------------------------------
Test set: com.superrest.hero.restfullhero.RestfullheroApplicationTests
-------------------------------------------------------------------------------
Tests run: 1, Failures: 0, Errors: 0, Skipped: 0, Time elapsed: 10.208 s - in com.superrest.hero.restfullhero.RestfullheroApplicationTests
